\relax 
\providecommand\hyper@newdestlabel[2]{}
\providecommand\HyperFirstAtBeginDocument{\AtBeginDocument}
\HyperFirstAtBeginDocument{\ifx\hyper@anchor\@undefined
\global\let\oldcontentsline\contentsline
\gdef\contentsline#1#2#3#4{\oldcontentsline{#1}{#2}{#3}}
\global\let\oldnewlabel\newlabel
\gdef\newlabel#1#2{\newlabelxx{#1}#2}
\gdef\newlabelxx#1#2#3#4#5#6{\oldnewlabel{#1}{{#2}{#3}}}
\AtEndDocument{\ifx\hyper@anchor\@undefined
\let\contentsline\oldcontentsline
\let\newlabel\oldnewlabel
\fi}
\fi}
\global\let\hyper@last\relax 
\gdef\HyperFirstAtBeginDocument#1{#1}
\providecommand\HyField@AuxAddToFields[1]{}
\providecommand\HyField@AuxAddToCoFields[2]{}
\providecommand\tcolorbox@label[2]{}
\select@language{english}
\@writefile{toc}{\select@language{english}}
\@writefile{lof}{\select@language{english}}
\@writefile{lot}{\select@language{english}}
\@writefile{nav}{\headcommand {\slideentry {0}{0}{1}{1/1}{}{0}}}
\@writefile{nav}{\headcommand {\beamer@framepages {1}{1}}}
\@writefile{nav}{\headcommand {\slideentry {0}{0}{2}{2/2}{}{0}}}
\@writefile{nav}{\headcommand {\beamer@framepages {2}{2}}}
\@writefile{toc}{\beamer@sectionintoc {1}{Overview}{3}{0}{1}}
\@writefile{nav}{\headcommand {\sectionentry {1}{Overview}{3}{Overview}{0}}}
\@writefile{nav}{\headcommand {\beamer@sectionpages {1}{2}}}
\@writefile{nav}{\headcommand {\beamer@subsectionpages {1}{2}}}
\@writefile{toc}{\beamer@subsectionintoc {1}{1}{Work Scheduling}{3}{0}{1}}
\@writefile{nav}{\headcommand {\beamer@subsectionentry {0}{1}{1}{3}{Work Scheduling}}\headcommand {\beamer@subsectionpages {3}{2}}}
\@writefile{nav}{\headcommand {\slideentry {1}{1}{1}{3/3}{Work Scheduling}{0}}}
\@writefile{nav}{\headcommand {\beamer@framepages {3}{3}}}
\citation{1}
\@writefile{toc}{\beamer@sectionintoc {2}{Tools $\&$ Datasets}{4}{0}{2}}
\@writefile{nav}{\headcommand {\sectionentry {2}{Tools $\&$ Datasets}{4}{Tools $\&$ Datasets}{0}}}
\@writefile{nav}{\headcommand {\beamer@sectionpages {3}{3}}}
\@writefile{nav}{\headcommand {\beamer@subsectionpages {3}{3}}}
\@writefile{toc}{\beamer@subsectionintoc {2}{1}{Dataset Choice}{4}{0}{2}}
\@writefile{nav}{\headcommand {\beamer@subsectionentry {0}{2}{1}{4}{Dataset Choice}}\headcommand {\beamer@subsectionpages {4}{3}}}
\@writefile{nav}{\headcommand {\slideentry {2}{1}{1}{4/4}{Dataset Choice}{0}}}
\@writefile{nav}{\headcommand {\beamer@framepages {4}{4}}}
\@writefile{nav}{\headcommand {\slideentry {2}{1}{2}{5/5}{Dataset Choice}{0}}}
\@writefile{nav}{\headcommand {\beamer@framepages {5}{5}}}
\@writefile{nav}{\headcommand {\slideentry {2}{1}{3}{6/6}{Dataset Choice}{0}}}
\@writefile{nav}{\headcommand {\beamer@framepages {6}{6}}}
\@writefile{nav}{\headcommand {\slideentry {2}{1}{4}{7/7}{Dataset Choice}{0}}}
\@writefile{nav}{\headcommand {\beamer@framepages {7}{7}}}
\@writefile{nav}{\headcommand {\slideentry {2}{1}{5}{8/8}{Dataset Choice}{0}}}
\@writefile{nav}{\headcommand {\beamer@framepages {8}{8}}}
\@writefile{toc}{\beamer@subsectionintoc {2}{2}{Metadata}{9}{0}{2}}
\@writefile{nav}{\headcommand {\beamer@subsectionentry {0}{2}{2}{9}{Metadata}}\headcommand {\beamer@subsectionpages {4}{8}}}
\@writefile{nav}{\headcommand {\slideentry {2}{2}{1}{9/9}{Metadata}{0}}}
\@writefile{nav}{\headcommand {\beamer@framepages {9}{9}}}
\@writefile{nav}{\headcommand {\slideentry {2}{2}{2}{10/10}{Metadata}{0}}}
\@writefile{nav}{\headcommand {\beamer@framepages {10}{10}}}
\@writefile{toc}{\beamer@subsectionintoc {2}{3}{Categories}{11}{0}{2}}
\@writefile{nav}{\headcommand {\beamer@subsectionentry {0}{2}{3}{11}{Categories}}\headcommand {\beamer@subsectionpages {9}{10}}}
\@writefile{nav}{\headcommand {\slideentry {2}{3}{1}{11/11}{Categories}{0}}}
\@writefile{nav}{\headcommand {\beamer@framepages {11}{11}}}
\@writefile{nav}{\headcommand {\slideentry {2}{3}{2}{12/12}{Categories}{0}}}
\@writefile{nav}{\headcommand {\beamer@framepages {12}{12}}}
\@writefile{toc}{\beamer@subsectionintoc {2}{4}{Metrics $\&$ indices}{13}{0}{2}}
\@writefile{nav}{\headcommand {\beamer@subsectionentry {0}{2}{4}{13}{Metrics $\&$ indices}}\headcommand {\beamer@subsectionpages {11}{12}}}
\@writefile{nav}{\headcommand {\slideentry {2}{4}{1}{13/13}{Metrics $\&$ indices}{0}}}
\@writefile{nav}{\headcommand {\beamer@framepages {13}{13}}}
\@writefile{nav}{\headcommand {\slideentry {2}{4}{2}{14/14}{Metrics $\&$ indices}{0}}}
\@writefile{nav}{\headcommand {\beamer@framepages {14}{14}}}
\@writefile{nav}{\headcommand {\slideentry {2}{4}{3}{15/15}{Metrics $\&$ indices}{0}}}
\@writefile{nav}{\headcommand {\beamer@framepages {15}{15}}}
\@writefile{toc}{\beamer@sectionintoc {3}{Data analysis}{16}{0}{3}}
\@writefile{nav}{\headcommand {\sectionentry {3}{Data analysis}{16}{Data analysis}{0}}}
\@writefile{nav}{\headcommand {\beamer@sectionpages {4}{15}}}
\@writefile{nav}{\headcommand {\beamer@subsectionpages {13}{15}}}
\@writefile{toc}{\beamer@subsectionintoc {3}{1}{Long Tail}{16}{0}{3}}
\@writefile{nav}{\headcommand {\beamer@subsectionentry {0}{3}{1}{16}{Long Tail}}\headcommand {\beamer@subsectionpages {16}{15}}}
\@writefile{nav}{\headcommand {\slideentry {3}{1}{1}{16/16}{Long Tail}{0}}}
\@writefile{nav}{\headcommand {\beamer@framepages {16}{16}}}
\@writefile{nav}{\headcommand {\slideentry {3}{1}{2}{17/17}{Long Tail}{0}}}
\@writefile{nav}{\headcommand {\beamer@framepages {17}{17}}}
\@writefile{nav}{\headcommand {\slideentry {3}{1}{3}{18/18}{Long Tail}{0}}}
\@writefile{nav}{\headcommand {\beamer@framepages {18}{18}}}
\@writefile{toc}{\beamer@subsectionintoc {3}{2}{Data tidying}{19}{0}{3}}
\@writefile{nav}{\headcommand {\beamer@subsectionentry {0}{3}{2}{19}{Data tidying}}\headcommand {\beamer@subsectionpages {16}{18}}}
\@writefile{nav}{\headcommand {\slideentry {3}{2}{1}{19/19}{Data tidying}{0}}}
\@writefile{nav}{\headcommand {\beamer@framepages {19}{19}}}
\@writefile{nav}{\headcommand {\slideentry {3}{2}{2}{20/20}{Data tidying}{0}}}
\@writefile{nav}{\headcommand {\beamer@framepages {20}{20}}}
\@writefile{toc}{\beamer@sectionintoc {4}{Techniques}{21}{0}{4}}
\@writefile{nav}{\headcommand {\sectionentry {4}{Techniques}{21}{Techniques}{0}}}
\@writefile{nav}{\headcommand {\beamer@sectionpages {16}{20}}}
\@writefile{nav}{\headcommand {\beamer@subsectionpages {19}{20}}}
\@writefile{toc}{\beamer@subsectionintoc {4}{1}{User-Item Matrix}{21}{0}{4}}
\@writefile{nav}{\headcommand {\beamer@subsectionentry {0}{4}{1}{21}{User-Item Matrix}}\headcommand {\beamer@subsectionpages {21}{20}}}
\@writefile{nav}{\headcommand {\slideentry {4}{1}{1}{21/21}{User-Item Matrix}{0}}}
\@writefile{nav}{\headcommand {\beamer@framepages {21}{21}}}
\citation{2}
\citation{3}
\@writefile{nav}{\headcommand {\slideentry {4}{1}{2}{22/22}{User-Item Matrix}{0}}}
\@writefile{nav}{\headcommand {\beamer@framepages {22}{22}}}
\@writefile{toc}{\beamer@subsectionintoc {4}{2}{Collaborative filtering}{23}{0}{4}}
\@writefile{nav}{\headcommand {\beamer@subsectionentry {0}{4}{2}{23}{Collaborative filtering}}\headcommand {\beamer@subsectionpages {21}{22}}}
\@writefile{nav}{\headcommand {\slideentry {4}{2}{1}{23/23}{Collaborative filtering}{0}}}
\@writefile{nav}{\headcommand {\beamer@framepages {23}{23}}}
\@writefile{nav}{\headcommand {\slideentry {4}{2}{2}{24/24}{Collaborative filtering}{0}}}
\@writefile{nav}{\headcommand {\beamer@framepages {24}{24}}}
\@writefile{toc}{\beamer@subsectionintoc {4}{3}{Mean Squared Error}{25}{0}{4}}
\@writefile{nav}{\headcommand {\beamer@subsectionentry {0}{4}{3}{25}{Mean Squared Error}}\headcommand {\beamer@subsectionpages {23}{24}}}
\@writefile{nav}{\headcommand {\slideentry {4}{3}{1}{25/25}{Mean Squared Error}{0}}}
\@writefile{nav}{\headcommand {\beamer@framepages {25}{25}}}
\@writefile{nav}{\headcommand {\slideentry {4}{3}{2}{26/26}{Mean Squared Error}{0}}}
\@writefile{nav}{\headcommand {\beamer@framepages {26}{26}}}
\citation{4}
\@writefile{nav}{\headcommand {\slideentry {4}{3}{3}{27/27}{Mean Squared Error}{0}}}
\@writefile{nav}{\headcommand {\beamer@framepages {27}{27}}}
\@writefile{toc}{\beamer@subsectionintoc {4}{4}{Proximity measure}{28}{0}{4}}
\@writefile{nav}{\headcommand {\beamer@subsectionentry {0}{4}{4}{28}{Proximity measure}}\headcommand {\beamer@subsectionpages {25}{27}}}
\@writefile{nav}{\headcommand {\slideentry {4}{4}{1}{28/28}{Proximity measure}{0}}}
\@writefile{nav}{\headcommand {\beamer@framepages {28}{28}}}
\@writefile{nav}{\headcommand {\slideentry {4}{4}{2}{29/29}{Proximity measure}{0}}}
\@writefile{nav}{\headcommand {\beamer@framepages {29}{29}}}
\@writefile{nav}{\headcommand {\slideentry {4}{4}{3}{30/30}{Proximity measure}{0}}}
\@writefile{nav}{\headcommand {\beamer@framepages {30}{30}}}
\@writefile{toc}{\beamer@subsectionintoc {4}{5}{Pearson Similarity}{31}{0}{4}}
\@writefile{nav}{\headcommand {\beamer@subsectionentry {0}{4}{5}{31}{Pearson Similarity}}\headcommand {\beamer@subsectionpages {28}{30}}}
\@writefile{nav}{\headcommand {\slideentry {4}{5}{1}{31/31}{Pearson Similarity}{0}}}
\@writefile{nav}{\headcommand {\beamer@framepages {31}{31}}}
\citation{5}
\@writefile{nav}{\headcommand {\slideentry {4}{5}{2}{32/32}{Pearson Similarity}{0}}}
\@writefile{nav}{\headcommand {\beamer@framepages {32}{32}}}
\@writefile{toc}{\beamer@subsectionintoc {4}{6}{Cosine Similarity}{33}{0}{4}}
\@writefile{nav}{\headcommand {\beamer@subsectionentry {0}{4}{6}{33}{Cosine Similarity}}\headcommand {\beamer@subsectionpages {31}{32}}}
\@writefile{nav}{\headcommand {\slideentry {4}{6}{1}{33/33}{Cosine Similarity}{0}}}
\@writefile{nav}{\headcommand {\beamer@framepages {33}{33}}}
\citation{6}
\@writefile{nav}{\headcommand {\slideentry {4}{6}{2}{34/34}{Cosine Similarity}{0}}}
\@writefile{nav}{\headcommand {\beamer@framepages {34}{34}}}
\@writefile{nav}{\headcommand {\slideentry {4}{6}{3}{35/35}{Cosine Similarity}{0}}}
\@writefile{nav}{\headcommand {\beamer@framepages {35}{35}}}
\@writefile{nav}{\headcommand {\slideentry {4}{6}{4}{36/36}{Cosine Similarity}{0}}}
\@writefile{nav}{\headcommand {\beamer@framepages {36}{36}}}
\@writefile{nav}{\headcommand {\slideentry {4}{6}{5}{37/37}{Cosine Similarity}{0}}}
\@writefile{nav}{\headcommand {\beamer@framepages {37}{37}}}
\@writefile{toc}{\beamer@subsectionintoc {4}{7}{Predictions}{38}{0}{4}}
\@writefile{nav}{\headcommand {\beamer@subsectionentry {0}{4}{7}{38}{Predictions}}\headcommand {\beamer@subsectionpages {33}{37}}}
\@writefile{nav}{\headcommand {\slideentry {4}{7}{1}{38/38}{Predictions}{0}}}
\@writefile{nav}{\headcommand {\beamer@framepages {38}{38}}}
\@writefile{nav}{\headcommand {\slideentry {4}{7}{2}{39/39}{Predictions}{0}}}
\@writefile{nav}{\headcommand {\beamer@framepages {39}{39}}}
\@writefile{nav}{\headcommand {\slideentry {4}{7}{3}{40/40}{Predictions}{0}}}
\@writefile{nav}{\headcommand {\beamer@framepages {40}{40}}}
\@writefile{nav}{\headcommand {\slideentry {4}{7}{4}{41/41}{Predictions}{0}}}
\@writefile{nav}{\headcommand {\beamer@framepages {41}{41}}}
\@writefile{toc}{\beamer@sectionintoc {5}{Future works}{42}{0}{5}}
\@writefile{nav}{\headcommand {\sectionentry {5}{Future works}{42}{Future works}{0}}}
\@writefile{nav}{\headcommand {\beamer@sectionpages {21}{41}}}
\@writefile{nav}{\headcommand {\beamer@subsectionpages {38}{41}}}
\@writefile{toc}{\beamer@subsectionintoc {5}{1}{Next sprint scheduling}{42}{0}{5}}
\@writefile{nav}{\headcommand {\beamer@subsectionentry {0}{5}{1}{42}{Next sprint scheduling}}\headcommand {\beamer@subsectionpages {42}{41}}}
\@writefile{nav}{\headcommand {\slideentry {5}{1}{1}{42/42}{Next sprint scheduling}{0}}}
\@writefile{nav}{\headcommand {\beamer@framepages {42}{42}}}
\@writefile{nav}{\headcommand {\slideentry {5}{1}{2}{43/43}{Next sprint scheduling}{0}}}
\@writefile{nav}{\headcommand {\beamer@framepages {43}{43}}}
\@writefile{nav}{\headcommand {\slideentry {5}{1}{3}{44/44}{Next sprint scheduling}{0}}}
\@writefile{nav}{\headcommand {\beamer@framepages {44}{44}}}
\@writefile{nav}{\headcommand {\slideentry {5}{1}{4}{45/45}{Next sprint scheduling}{0}}}
\@writefile{nav}{\headcommand {\beamer@framepages {45}{45}}}
\@writefile{nav}{\headcommand {\slideentry {5}{1}{5}{46/46}{Next sprint scheduling}{0}}}
\@writefile{nav}{\headcommand {\beamer@framepages {46}{46}}}
\@writefile{nav}{\headcommand {\slideentry {5}{1}{6}{47/47}{Next sprint scheduling}{0}}}
\@writefile{nav}{\headcommand {\beamer@framepages {47}{47}}}
\@writefile{nav}{\headcommand {\slideentry {5}{1}{7}{48/48}{Next sprint scheduling}{0}}}
\@writefile{nav}{\headcommand {\beamer@framepages {48}{48}}}
\@writefile{toc}{\beamer@subsectionintoc {5}{2}{Impediments}{49}{0}{5}}
\@writefile{nav}{\headcommand {\beamer@subsectionentry {0}{5}{2}{49}{Impediments}}\headcommand {\beamer@subsectionpages {42}{48}}}
\@writefile{nav}{\headcommand {\slideentry {5}{2}{1}{49/49}{Impediments}{0}}}
\@writefile{nav}{\headcommand {\beamer@framepages {49}{49}}}
\@writefile{toc}{\beamer@subsectionintoc {5}{3}{Notions}{50}{0}{5}}
\@writefile{nav}{\headcommand {\beamer@subsectionentry {0}{5}{3}{50}{Notions}}\headcommand {\beamer@subsectionpages {49}{49}}}
\@writefile{nav}{\headcommand {\slideentry {5}{3}{1}{50/50}{Notions}{0}}}
\@writefile{nav}{\headcommand {\beamer@framepages {50}{50}}}
\citation{7}
\@writefile{nav}{\headcommand {\slideentry {5}{3}{2}{51/51}{Notions}{0}}}
\@writefile{nav}{\headcommand {\beamer@framepages {51}{51}}}
\citation{*}
\bibstyle{alpha}
\bibdata{biblio.bib}
\bibcite{1}{{1}{}{{}}{{}}}
\bibcite{2}{{2}{}{{}}{{}}}
\bibcite{3}{{3}{}{{}}{{}}}
\bibcite{4}{{4}{}{{}}{{}}}
\bibcite{5}{{5}{}{{}}{{}}}
\bibcite{6}{{6}{}{{}}{{}}}
\bibcite{7}{{7}{}{{}}{{}}}
\bibcite{10}{{CT02}{}{{}}{{}}}
\bibcite{8}{{DJ10}{}{{}}{{}}}
\bibcite{9}{{PB07}{}{{}}{{}}}
\@writefile{nav}{\headcommand {\sectionentry {6}{References}{52}{References}{0}}}
\@writefile{nav}{\headcommand {\beamer@sectionpages {42}{51}}}
\@writefile{nav}{\headcommand {\beamer@subsectionpages {50}{51}}}
\@writefile{nav}{\headcommand {\slideentry {6}{0}{0}{52/52}{Notions}{0}}}
\@writefile{nav}{\headcommand {\beamer@framepages {52}{52}}}
\@writefile{nav}{\headcommand {\beamer@partpages {1}{52}}}
\@writefile{nav}{\headcommand {\beamer@subsectionpages {50}{52}}}
\@writefile{nav}{\headcommand {\beamer@sectionpages {42}{52}}}
\@writefile{nav}{\headcommand {\beamer@documentpages {52}}}
\@writefile{nav}{\headcommand {\def \inserttotalframenumber {52}}}
\providecommand\NAT@force@numbers{}\NAT@force@numbers
