\BOOKMARK [2][]{Outline0.1}{Overview}{}% 1
\BOOKMARK [3][]{Outline0.1.1.3}{Work Scheduling}{Outline0.1}% 2
\BOOKMARK [2][]{Outline0.2}{Tools \046 Datasets}{}% 3
\BOOKMARK [3][]{Outline0.2.1.4}{Dataset Choice}{Outline0.2}% 4
\BOOKMARK [3][]{Outline0.2.2.9}{Metadata}{Outline0.2}% 5
\BOOKMARK [3][]{Outline0.2.3.11}{Categories}{Outline0.2}% 6
\BOOKMARK [3][]{Outline0.2.4.13}{Metrics \046 indices}{Outline0.2}% 7
\BOOKMARK [2][]{Outline0.3}{Data analysis}{}% 8
\BOOKMARK [3][]{Outline0.3.1.16}{Long Tail}{Outline0.3}% 9
\BOOKMARK [3][]{Outline0.3.2.19}{Data tidying}{Outline0.3}% 10
\BOOKMARK [2][]{Outline0.4}{Techniques}{}% 11
\BOOKMARK [3][]{Outline0.4.1.21}{User-Item Matrix}{Outline0.4}% 12
\BOOKMARK [3][]{Outline0.4.2.23}{Collaborative filtering}{Outline0.4}% 13
\BOOKMARK [3][]{Outline0.4.3.25}{Mean Squared Error}{Outline0.4}% 14
\BOOKMARK [3][]{Outline0.4.4.28}{Proximity measure}{Outline0.4}% 15
\BOOKMARK [3][]{Outline0.4.5.31}{Pearson Similarity}{Outline0.4}% 16
\BOOKMARK [3][]{Outline0.4.6.33}{Cosine Similarity}{Outline0.4}% 17
\BOOKMARK [3][]{Outline0.4.7.38}{Predictions}{Outline0.4}% 18
\BOOKMARK [2][]{Outline0.5}{Future works}{}% 19
\BOOKMARK [3][]{Outline0.5.1.42}{Next sprint scheduling}{Outline0.5}% 20
\BOOKMARK [3][]{Outline0.5.2.49}{Impediments}{Outline0.5}% 21
\BOOKMARK [3][]{Outline0.5.3.50}{Notions}{Outline0.5}% 22
