\relax 
\providecommand\hyper@newdestlabel[2]{}
\providecommand\HyperFirstAtBeginDocument{\AtBeginDocument}
\HyperFirstAtBeginDocument{\ifx\hyper@anchor\@undefined
\global\let\oldcontentsline\contentsline
\gdef\contentsline#1#2#3#4{\oldcontentsline{#1}{#2}{#3}}
\global\let\oldnewlabel\newlabel
\gdef\newlabel#1#2{\newlabelxx{#1}#2}
\gdef\newlabelxx#1#2#3#4#5#6{\oldnewlabel{#1}{{#2}{#3}}}
\AtEndDocument{\ifx\hyper@anchor\@undefined
\let\contentsline\oldcontentsline
\let\newlabel\oldnewlabel
\fi}
\fi}
\global\let\hyper@last\relax 
\gdef\HyperFirstAtBeginDocument#1{#1}
\providecommand\HyField@AuxAddToFields[1]{}
\providecommand\HyField@AuxAddToCoFields[2]{}
\providecommand\tcolorbox@label[2]{}
\select@language{english}
\@writefile{toc}{\select@language{english}}
\@writefile{lof}{\select@language{english}}
\@writefile{lot}{\select@language{english}}
\citation{1}
\@writefile{toc}{\contentsline {chapter}{\numberline {1}Overview}{3}{chapter.1}}
\@writefile{lof}{\addvspace {10\p@ }}
\@writefile{lot}{\addvspace {10\p@ }}
\@writefile{toc}{\contentsline {section}{\numberline {1.1}Pipeline del progetto}{3}{section.1.1}}
\@writefile{toc}{\contentsline {chapter}{\numberline {2}Dataset}{3}{chapter.2}}
\@writefile{lof}{\addvspace {10\p@ }}
\@writefile{lot}{\addvspace {10\p@ }}
\@writefile{toc}{\contentsline {section}{\numberline {2.1}Scelta del Dataset}{3}{section.2.1}}
\@writefile{toc}{\contentsline {section}{\numberline {2.2}Scalabilit\IeC {\`a} del dataset}{4}{section.2.2}}
\@writefile{lof}{\contentsline {figure}{\numberline {2.1}{\ignorespaces Categorie disponibili\relax }}{5}{figure.2.1}}
\@writefile{toc}{\contentsline {section}{\numberline {2.3}Formato del dataset}{5}{section.2.3}}
\@writefile{toc}{\contentsline {section}{\numberline {2.4}Metadati disponibili}{6}{section.2.4}}
\@writefile{toc}{\contentsline {subsection}{\numberline {2.4.1}Metadati dei prodotti}{6}{subsection.2.4.1}}
\@writefile{toc}{\contentsline {subsection}{\numberline {2.4.2}Metadati delle recensioni degli utenti}{6}{subsection.2.4.2}}
\@writefile{toc}{\contentsline {subsection}{\numberline {2.4.3}Metadati delle votazioni degli utenti}{6}{subsection.2.4.3}}
\@writefile{toc}{\contentsline {subsection}{\numberline {2.4.4}Principali Entit\IeC {\`a} importate}{7}{subsection.2.4.4}}
\@writefile{toc}{\contentsline {section}{\numberline {2.5}Statistiche del dataset}{7}{section.2.5}}
\@writefile{toc}{\contentsline {subsection}{\numberline {2.5.1}Librerie utilizzate}{7}{subsection.2.5.1}}
\@writefile{toc}{\contentsline {subsubsection}{Python}{7}{subsubsection*.3}}
\@writefile{toc}{\contentsline {subsubsection}{R}{8}{subsubsection*.4}}
\@writefile{toc}{\contentsline {chapter}{\numberline {3}Data analysis}{8}{chapter.3}}
\@writefile{lof}{\addvspace {10\p@ }}
\@writefile{lot}{\addvspace {10\p@ }}
\@writefile{toc}{\contentsline {section}{\numberline {3.1}Long Tail}{8}{section.3.1}}
\@writefile{toc}{\contentsline {subsection}{\numberline {3.1.1}Long tail dei prodotti}{8}{subsection.3.1.1}}
\@writefile{lof}{\contentsline {figure}{\numberline {3.1}{\ignorespaces Long tail dei prodotti\relax }}{9}{figure.3.1}}
\@writefile{lof}{\contentsline {figure}{\numberline {3.2}{\ignorespaces Zoom in\relax }}{9}{figure.3.2}}
\@writefile{toc}{\contentsline {subsection}{\numberline {3.1.2}Long tail degli utenti}{9}{subsection.3.1.2}}
\@writefile{lof}{\contentsline {figure}{\numberline {3.3}{\ignorespaces Long tail degli utenti\relax }}{10}{figure.3.3}}
\@writefile{lof}{\contentsline {figure}{\numberline {3.4}{\ignorespaces Zoom in\relax }}{10}{figure.3.4}}
\@writefile{toc}{\contentsline {subsection}{\numberline {3.1.3}Long tail della popolarit\IeC {\`a} dei prodotti}{10}{subsection.3.1.3}}
\@writefile{lof}{\contentsline {figure}{\numberline {3.5}{\ignorespaces Long tail della popolarit\IeC {\`a} dei prodotti\relax }}{10}{figure.3.5}}
\@writefile{toc}{\contentsline {section}{\numberline {3.2}Data tidying}{11}{section.3.2}}
\@writefile{toc}{\contentsline {subsection}{\numberline {3.2.1}Data Tidying - Database}{11}{subsection.3.2.1}}
\@writefile{toc}{\contentsline {subsection}{\numberline {3.2.2}Filtraggio dei dati - Eliminazione di utenti}{11}{subsection.3.2.2}}
\@writefile{toc}{\contentsline {chapter}{\numberline {4}Techniques}{11}{chapter.4}}
\@writefile{lof}{\addvspace {10\p@ }}
\@writefile{lot}{\addvspace {10\p@ }}
\@writefile{toc}{\contentsline {section}{\numberline {4.1}Matrix}{11}{section.4.1}}
\@writefile{toc}{\contentsline {subsection}{\numberline {4.1.1}Creazione della matrice}{11}{subsection.4.1.1}}
\citation{2}
\citation{3}
\@writefile{toc}{\contentsline {subsection}{\numberline {4.1.2}Librerie per la gestione della matrice}{12}{subsection.4.1.2}}
\@writefile{toc}{\contentsline {section}{\numberline {4.2}Collaborative filtering}{12}{section.4.2}}
\@writefile{toc}{\contentsline {subsection}{\numberline {4.2.1}Metriche e tecniche di filtraggio collaborativo}{12}{subsection.4.2.1}}
\@writefile{toc}{\contentsline {subsection}{\numberline {4.2.2}Alcuni risultati}{13}{subsection.4.2.2}}
\@writefile{toc}{\contentsline {subsection}{\numberline {4.2.3}Mean Squared Error}{13}{subsection.4.2.3}}
\@writefile{lot}{\contentsline {table}{\numberline {4.1}{\ignorespaces Scarto\relax }}{13}{table.4.1}}
\@writefile{lot}{\contentsline {table}{\numberline {4.2}{\ignorespaces Numero di prodotti in comune\relax }}{13}{table.4.2}}
\@writefile{toc}{\contentsline {subsection}{\numberline {4.2.4}Analisi del risultato}{13}{subsection.4.2.4}}
\citation{4}
\@writefile{toc}{\contentsline {subsection}{\numberline {4.2.5}Considerazione MSE}{14}{subsection.4.2.5}}
\@writefile{toc}{\contentsline {subsection}{\numberline {4.2.6}Computazione di MSE}{14}{subsection.4.2.6}}
\@writefile{toc}{\contentsline {subsection}{\numberline {4.2.7}Proximity measure}{14}{subsection.4.2.7}}
\@writefile{lot}{\contentsline {table}{\numberline {4.3}{\ignorespaces Proximity measure\relax }}{14}{table.4.3}}
\@writefile{lot}{\contentsline {table}{\numberline {4.4}{\ignorespaces Prodotti in comune\relax }}{14}{table.4.4}}
\@writefile{toc}{\contentsline {subsection}{\numberline {4.2.8}Considerazioni Proximity}{14}{subsection.4.2.8}}
\citation{5}
\@writefile{toc}{\contentsline {subsection}{\numberline {4.2.9}Computazione di Proximity Similarity}{15}{subsection.4.2.9}}
\@writefile{toc}{\contentsline {subsection}{\numberline {4.2.10}Pearson Similarity}{15}{subsection.4.2.10}}
\@writefile{lot}{\contentsline {table}{\numberline {4.5}{\ignorespaces Similarit\IeC {\`a}\relax }}{15}{table.4.5}}
\@writefile{lot}{\contentsline {table}{\numberline {4.6}{\ignorespaces Prodotti in comune\relax }}{15}{table.4.6}}
\@writefile{toc}{\contentsline {subsection}{\numberline {4.2.11}Computazione di Pearson Similarity}{15}{subsection.4.2.11}}
\citation{6}
\@writefile{toc}{\contentsline {subsection}{\numberline {4.2.12}Cosine similarity per gli utenti}{16}{subsection.4.2.12}}
\@writefile{lot}{\contentsline {table}{\numberline {4.7}{\ignorespaces Cosine similarity\relax }}{16}{table.4.7}}
\@writefile{toc}{\contentsline {subsection}{\numberline {4.2.13}Computazione di Cosine Similarity}{16}{subsection.4.2.13}}
\@writefile{toc}{\contentsline {subsection}{\numberline {4.2.14}Considerazioni sugli indici: Cosine e Pearson}{16}{subsection.4.2.14}}
\@writefile{toc}{\contentsline {section}{\numberline {4.3}Predictions}{16}{section.4.3}}
\@writefile{toc}{\contentsline {subsection}{\numberline {4.3.1}User based Predictions}{16}{subsection.4.3.1}}
\@writefile{toc}{\contentsline {subsection}{\numberline {4.3.2}Fasi di test}{17}{subsection.4.3.2}}
\@writefile{toc}{\contentsline {subsection}{\numberline {4.3.3}Predizioni risultanti da varie tecniche}{17}{subsection.4.3.3}}
\@writefile{toc}{\contentsline {chapter}{\numberline {5}Future works}{17}{chapter.5}}
\@writefile{lof}{\addvspace {10\p@ }}
\@writefile{lot}{\addvspace {10\p@ }}
\@writefile{toc}{\contentsline {section}{\numberline {5.1}Next sprint scheduling}{17}{section.5.1}}
\@writefile{toc}{\contentsline {subsection}{\numberline {5.1.1}Futuri sviluppi}{17}{subsection.5.1.1}}
\@writefile{toc}{\contentsline {subsection}{\numberline {5.1.2}Futuri sviluppi}{18}{subsection.5.1.2}}
\@writefile{toc}{\contentsline {subsection}{\numberline {5.1.3}Che operazioni stiamo svolgendo ora?}{18}{subsection.5.1.3}}
\@writefile{toc}{\contentsline {subsection}{\numberline {5.1.4}Esempio di stopword removal}{19}{subsection.5.1.4}}
\@writefile{toc}{\contentsline {subsection}{\numberline {5.1.5}Futuri sviluppi}{19}{subsection.5.1.5}}
\@writefile{toc}{\contentsline {subsection}{\numberline {5.1.6}Futuri sviluppi}{19}{subsection.5.1.6}}
\@writefile{toc}{\contentsline {subsection}{\numberline {5.1.7}Futuri sviluppi}{19}{subsection.5.1.7}}
\@writefile{toc}{\contentsline {section}{\numberline {5.2}Impediments}{19}{section.5.2}}
\@writefile{toc}{\contentsline {subsection}{\numberline {5.2.1}Problematiche riscontrate}{19}{subsection.5.2.1}}
\bibstyle{plain}
\bibdata{biblio}
\@writefile{toc}{\contentsline {chapter}{Bibliografia}{20}{Item.23}}
\bibcite{1}{{1}{}{{}}{{}}}
\bibcite{5}{{2}{}{{}}{{}}}
\bibcite{4}{{3}{}{{}}{{}}}
\bibcite{3}{{4}{}{{}}{{}}}
\bibcite{2}{{5}{}{{}}{{}}}
\bibcite{6}{{6}{}{{}}{{}}}
\providecommand\NAT@force@numbers{}\NAT@force@numbers
