This is BibTeX, Version 0.99d (TeX Live 2016/Debian)
Capacity: max_strings=100000, hash_size=100000, hash_prime=85009
The top-level auxiliary file: second_part.aux
The style file: alpha.bst
Database file #1: biblio.bib.bib
Warning--to sort, need author or key in 2
Warning--to sort, need author or key in 3
Warning--to sort, need author or key in 4
Warning--to sort, need author or key in 5
Warning--to sort, need author or key in 11
Warning--to sort, need author or key in 1
Too many commas in name 1 of "Dietmar Jannach, Markus Zanker, Alexander Felfernig, Gerhard Friedrich" for entry 8
while executing---line 1185 of file alpha.bst
Too many commas in name 1 of "Dietmar Jannach, Markus Zanker, Alexander Felfernig, Gerhard Friedrich" for entry 8
while executing---line 1185 of file alpha.bst
Too many commas in name 1 of "Dietmar Jannach, Markus Zanker, Alexander Felfernig, Gerhard Friedrich" for entry 8
while executing---line 1250 of file alpha.bst
You've used 9 entries,
            2543 wiz_defined-function locations,
            592 strings with 5414 characters,
and the built_in function-call counts, 2160 in all, are:
= -- 213
> -- 30
< -- 3
+ -- 7
- -- 6
* -- 107
:= -- 296
add.period$ -- 27
call.type$ -- 9
change.case$ -- 39
chr.to.int$ -- 9
cite$ -- 21
duplicate$ -- 108
empty$ -- 238
format.name$ -- 9
if$ -- 485
int.to.chr$ -- 1
int.to.str$ -- 0
missing$ -- 6
newline$ -- 48
num.names$ -- 9
pop$ -- 93
preamble$ -- 1
purify$ -- 48
quote$ -- 0
skip$ -- 75
stack$ -- 0
substring$ -- 70
swap$ -- 9
text.length$ -- 3
text.prefix$ -- 0
top$ -- 0
type$ -- 60
warning$ -- 6
while$ -- 6
width$ -- 11
write$ -- 107
(There were 3 error messages)
