\relax 
\providecommand\hyper@newdestlabel[2]{}
\providecommand\HyperFirstAtBeginDocument{\AtBeginDocument}
\HyperFirstAtBeginDocument{\ifx\hyper@anchor\@undefined
\global\let\oldcontentsline\contentsline
\gdef\contentsline#1#2#3#4{\oldcontentsline{#1}{#2}{#3}}
\global\let\oldnewlabel\newlabel
\gdef\newlabel#1#2{\newlabelxx{#1}#2}
\gdef\newlabelxx#1#2#3#4#5#6{\oldnewlabel{#1}{{#2}{#3}}}
\AtEndDocument{\ifx\hyper@anchor\@undefined
\let\contentsline\oldcontentsline
\let\newlabel\oldnewlabel
\fi}
\fi}
\global\let\hyper@last\relax 
\gdef\HyperFirstAtBeginDocument#1{#1}
\providecommand\HyField@AuxAddToFields[1]{}
\providecommand\HyField@AuxAddToCoFields[2]{}
\providecommand\tcolorbox@label[2]{}
\select@language{english}
\@writefile{toc}{\select@language{english}}
\@writefile{lof}{\select@language{english}}
\@writefile{lot}{\select@language{english}}
\@writefile{nav}{\headcommand {\slideentry {0}{0}{1}{1/1}{}{0}}}
\@writefile{nav}{\headcommand {\beamer@framepages {1}{1}}}
\@writefile{nav}{\headcommand {\slideentry {0}{0}{2}{2/2}{}{0}}}
\@writefile{nav}{\headcommand {\beamer@framepages {2}{2}}}
\@writefile{nav}{\headcommand {\slideentry {0}{0}{2}{2/3}{}{0}}}
\@writefile{nav}{\headcommand {\beamer@framepages {2}{3}}}
\@writefile{toc}{\beamer@sectionintoc {1}{Updates}{4}{0}{1}}
\@writefile{nav}{\headcommand {\sectionentry {1}{Updates}{4}{Updates}{0}}}
\@writefile{nav}{\headcommand {\beamer@sectionpages {1}{3}}}
\@writefile{nav}{\headcommand {\beamer@subsectionpages {1}{3}}}
\@writefile{toc}{\beamer@subsectionintoc {1}{1}{Updates}{4}{0}{1}}
\@writefile{nav}{\headcommand {\beamer@subsectionentry {0}{1}{1}{4}{Updates}}\headcommand {\beamer@subsectionpages {4}{3}}}
\@writefile{nav}{\headcommand {\slideentry {1}{1}{1}{4/4}{Updates}{0}}}
\@writefile{nav}{\headcommand {\beamer@framepages {4}{4}}}
\@writefile{nav}{\headcommand {\slideentry {1}{1}{2}{5/5}{Updates}{0}}}
\@writefile{nav}{\headcommand {\beamer@framepages {5}{5}}}
\@writefile{nav}{\headcommand {\slideentry {1}{1}{3}{6/6}{Updates}{0}}}
\@writefile{nav}{\headcommand {\beamer@framepages {6}{6}}}
\@writefile{nav}{\headcommand {\slideentry {1}{1}{4}{7/7}{Updates}{0}}}
\@writefile{nav}{\headcommand {\beamer@framepages {7}{7}}}
\@writefile{nav}{\headcommand {\slideentry {1}{1}{5}{8/8}{Updates}{0}}}
\@writefile{nav}{\headcommand {\beamer@framepages {8}{8}}}
\@writefile{toc}{\beamer@sectionintoc {2}{Content based}{9}{0}{2}}
\@writefile{nav}{\headcommand {\sectionentry {2}{Content based}{9}{Content based}{0}}}
\@writefile{nav}{\headcommand {\beamer@sectionpages {4}{8}}}
\@writefile{nav}{\headcommand {\beamer@subsectionpages {4}{8}}}
\@writefile{toc}{\beamer@subsectionintoc {2}{1}{Lineup of the speech}{9}{0}{2}}
\@writefile{nav}{\headcommand {\beamer@subsectionentry {0}{2}{1}{9}{Lineup of the speech}}\headcommand {\beamer@subsectionpages {9}{8}}}
\@writefile{nav}{\headcommand {\slideentry {2}{1}{1}{9/9}{Lineup of the speech}{0}}}
\@writefile{nav}{\headcommand {\beamer@framepages {9}{9}}}
\@writefile{toc}{\beamer@subsectionintoc {2}{2}{Tools and libraries}{10}{0}{2}}
\@writefile{nav}{\headcommand {\beamer@subsectionentry {0}{2}{2}{10}{Tools and libraries}}\headcommand {\beamer@subsectionpages {9}{9}}}
\@writefile{nav}{\headcommand {\slideentry {2}{2}{1}{10/10}{Tools and libraries}{0}}}
\@writefile{nav}{\headcommand {\beamer@framepages {10}{10}}}
\@writefile{toc}{\beamer@subsectionintoc {2}{3}{Metadata}{11}{0}{2}}
\@writefile{nav}{\headcommand {\beamer@subsectionentry {0}{2}{3}{11}{Metadata}}\headcommand {\beamer@subsectionpages {10}{10}}}
\@writefile{nav}{\headcommand {\slideentry {2}{3}{1}{11/11}{Metadata}{0}}}
\@writefile{nav}{\headcommand {\beamer@framepages {11}{11}}}
\@writefile{toc}{\beamer@subsectionintoc {2}{4}{Items descriptions}{12}{0}{2}}
\@writefile{nav}{\headcommand {\beamer@subsectionentry {0}{2}{4}{12}{Items descriptions}}\headcommand {\beamer@subsectionpages {11}{11}}}
\@writefile{nav}{\headcommand {\slideentry {2}{4}{1}{12/12}{Items descriptions}{0}}}
\@writefile{nav}{\headcommand {\beamer@framepages {12}{12}}}
\@writefile{toc}{\beamer@sectionintoc {3}{Preprocessing}{13}{0}{3}}
\@writefile{nav}{\headcommand {\sectionentry {3}{Preprocessing}{13}{Preprocessing}{0}}}
\@writefile{nav}{\headcommand {\beamer@sectionpages {9}{12}}}
\@writefile{nav}{\headcommand {\beamer@subsectionpages {12}{12}}}
\@writefile{toc}{\beamer@subsectionintoc {3}{1}{Stopwords removal}{13}{0}{3}}
\@writefile{nav}{\headcommand {\beamer@subsectionentry {0}{3}{1}{13}{Stopwords removal}}\headcommand {\beamer@subsectionpages {13}{12}}}
\@writefile{nav}{\headcommand {\slideentry {3}{1}{1}{13/13}{Stopwords removal}{0}}}
\@writefile{nav}{\headcommand {\beamer@framepages {13}{13}}}
\@writefile{nav}{\headcommand {\slideentry {3}{1}{2}{14/14}{Stopwords removal}{0}}}
\@writefile{nav}{\headcommand {\beamer@framepages {14}{14}}}
\@writefile{toc}{\beamer@subsectionintoc {3}{2}{Data}{15}{0}{3}}
\@writefile{nav}{\headcommand {\beamer@subsectionentry {0}{3}{2}{15}{Data}}\headcommand {\beamer@subsectionpages {13}{14}}}
\@writefile{nav}{\headcommand {\slideentry {3}{2}{1}{15/15}{Data}{0}}}
\@writefile{nav}{\headcommand {\beamer@framepages {15}{15}}}
\@writefile{toc}{\beamer@subsectionintoc {3}{3}{Stemming}{16}{0}{3}}
\@writefile{nav}{\headcommand {\beamer@subsectionentry {0}{3}{3}{16}{Stemming}}\headcommand {\beamer@subsectionpages {15}{15}}}
\@writefile{nav}{\headcommand {\slideentry {3}{3}{1}{16/16}{Stemming}{0}}}
\@writefile{nav}{\headcommand {\beamer@framepages {16}{16}}}
\@writefile{nav}{\headcommand {\slideentry {3}{3}{2}{17/17}{Stemming}{0}}}
\@writefile{nav}{\headcommand {\beamer@framepages {17}{17}}}
\@writefile{toc}{\beamer@subsectionintoc {3}{4}{Bag of words}{18}{0}{3}}
\@writefile{nav}{\headcommand {\beamer@subsectionentry {0}{3}{4}{18}{Bag of words}}\headcommand {\beamer@subsectionpages {16}{17}}}
\@writefile{nav}{\headcommand {\slideentry {3}{4}{1}{18/18}{Bag of words}{0}}}
\@writefile{nav}{\headcommand {\beamer@framepages {18}{18}}}
\@writefile{toc}{\beamer@sectionintoc {4}{Techniques}{19}{0}{4}}
\@writefile{nav}{\headcommand {\sectionentry {4}{Techniques}{19}{Techniques}{0}}}
\@writefile{nav}{\headcommand {\beamer@sectionpages {13}{18}}}
\@writefile{nav}{\headcommand {\beamer@subsectionpages {18}{18}}}
\@writefile{toc}{\beamer@subsectionintoc {4}{1}{Jaccard, Cosine e Dice}{19}{0}{4}}
\@writefile{nav}{\headcommand {\beamer@subsectionentry {0}{4}{1}{19}{Jaccard, Cosine e Dice}}\headcommand {\beamer@subsectionpages {19}{18}}}
\@writefile{nav}{\headcommand {\slideentry {4}{1}{1}{19/19}{Jaccard, Cosine e Dice}{0}}}
\@writefile{nav}{\headcommand {\beamer@framepages {19}{19}}}
\@writefile{nav}{\headcommand {\slideentry {4}{1}{2}{20/20}{Jaccard, Cosine e Dice}{0}}}
\@writefile{nav}{\headcommand {\beamer@framepages {20}{20}}}
\@writefile{nav}{\headcommand {\slideentry {4}{1}{3}{21/21}{Jaccard, Cosine e Dice}{0}}}
\@writefile{nav}{\headcommand {\beamer@framepages {21}{21}}}
\@writefile{toc}{\beamer@subsectionintoc {4}{2}{Jaccard}{22}{0}{4}}
\@writefile{nav}{\headcommand {\beamer@subsectionentry {0}{4}{2}{22}{Jaccard}}\headcommand {\beamer@subsectionpages {19}{21}}}
\@writefile{nav}{\headcommand {\slideentry {4}{2}{1}{22/22}{Jaccard}{0}}}
\@writefile{nav}{\headcommand {\beamer@framepages {22}{22}}}
\@writefile{toc}{\beamer@subsectionintoc {4}{3}{Dice}{23}{0}{4}}
\@writefile{nav}{\headcommand {\beamer@subsectionentry {0}{4}{3}{23}{Dice}}\headcommand {\beamer@subsectionpages {22}{22}}}
\@writefile{nav}{\headcommand {\slideentry {4}{3}{1}{23/23}{Dice}{0}}}
\@writefile{nav}{\headcommand {\beamer@framepages {23}{23}}}
\@writefile{toc}{\beamer@subsectionintoc {4}{4}{Tf*idf}{24}{0}{4}}
\@writefile{nav}{\headcommand {\beamer@subsectionentry {0}{4}{4}{24}{Tf*idf}}\headcommand {\beamer@subsectionpages {23}{23}}}
\@writefile{nav}{\headcommand {\slideentry {4}{4}{1}{24/24}{Tf*idf}{0}}}
\@writefile{nav}{\headcommand {\beamer@framepages {24}{24}}}
\@writefile{nav}{\headcommand {\slideentry {4}{4}{2}{25/25}{Tf*idf}{0}}}
\@writefile{nav}{\headcommand {\beamer@framepages {25}{25}}}
\@writefile{nav}{\headcommand {\slideentry {4}{4}{3}{26/26}{Tf*idf}{0}}}
\@writefile{nav}{\headcommand {\beamer@framepages {26}{26}}}
\@writefile{nav}{\headcommand {\slideentry {4}{4}{4}{27/27}{Tf*idf}{0}}}
\@writefile{nav}{\headcommand {\beamer@framepages {27}{27}}}
\@writefile{toc}{\beamer@subsectionintoc {4}{5}{Tfidf Conclusions}{28}{0}{4}}
\@writefile{nav}{\headcommand {\beamer@subsectionentry {0}{4}{5}{28}{Tfidf Conclusions}}\headcommand {\beamer@subsectionpages {24}{27}}}
\@writefile{nav}{\headcommand {\slideentry {4}{5}{1}{28/28}{Tfidf Conclusions}{0}}}
\@writefile{nav}{\headcommand {\beamer@framepages {28}{28}}}
\@writefile{toc}{\beamer@subsectionintoc {4}{6}{LSI}{29}{0}{4}}
\@writefile{nav}{\headcommand {\beamer@subsectionentry {0}{4}{6}{29}{LSI}}\headcommand {\beamer@subsectionpages {28}{28}}}
\@writefile{nav}{\headcommand {\slideentry {4}{6}{1}{29/29}{LSI}{0}}}
\@writefile{nav}{\headcommand {\beamer@framepages {29}{29}}}
\@writefile{nav}{\headcommand {\slideentry {4}{6}{2}{30/30}{LSI}{0}}}
\@writefile{nav}{\headcommand {\beamer@framepages {30}{30}}}
\@writefile{nav}{\headcommand {\slideentry {4}{6}{3}{31/31}{LSI}{0}}}
\@writefile{nav}{\headcommand {\beamer@framepages {31}{31}}}
\@writefile{nav}{\headcommand {\slideentry {4}{6}{4}{32/32}{LSI}{0}}}
\@writefile{nav}{\headcommand {\beamer@framepages {32}{32}}}
\@writefile{toc}{\beamer@subsectionintoc {4}{7}{LSI - Results}{33}{0}{4}}
\@writefile{nav}{\headcommand {\beamer@subsectionentry {0}{4}{7}{33}{LSI - Results}}\headcommand {\beamer@subsectionpages {29}{32}}}
\@writefile{nav}{\headcommand {\slideentry {4}{7}{1}{33/33}{LSI - Results}{0}}}
\@writefile{nav}{\headcommand {\beamer@framepages {33}{33}}}
\@writefile{nav}{\headcommand {\slideentry {4}{7}{2}{34/34}{LSI - Results}{0}}}
\@writefile{nav}{\headcommand {\beamer@framepages {34}{34}}}
\@writefile{nav}{\headcommand {\slideentry {4}{7}{3}{35/35}{LSI - Results}{0}}}
\@writefile{nav}{\headcommand {\beamer@framepages {35}{35}}}
\@writefile{toc}{\beamer@subsectionintoc {4}{8}{LSI VS Tf*idf}{36}{0}{4}}
\@writefile{nav}{\headcommand {\beamer@subsectionentry {0}{4}{8}{36}{LSI VS Tf*idf}}\headcommand {\beamer@subsectionpages {33}{35}}}
\@writefile{nav}{\headcommand {\slideentry {4}{8}{1}{36/36}{LSI VS Tf*idf}{0}}}
\@writefile{nav}{\headcommand {\beamer@framepages {36}{36}}}
\@writefile{toc}{\beamer@sectionintoc {5}{Hybrid}{37}{0}{5}}
\@writefile{nav}{\headcommand {\sectionentry {5}{Hybrid}{37}{Hybrid}{0}}}
\@writefile{nav}{\headcommand {\beamer@sectionpages {19}{36}}}
\@writefile{nav}{\headcommand {\beamer@subsectionpages {36}{36}}}
\@writefile{toc}{\beamer@subsectionintoc {5}{1}{Hybrid Approaches}{37}{0}{5}}
\@writefile{nav}{\headcommand {\beamer@subsectionentry {0}{5}{1}{37}{Hybrid Approaches}}\headcommand {\beamer@subsectionpages {37}{36}}}
\@writefile{nav}{\headcommand {\slideentry {5}{1}{1}{37/37}{Hybrid Approaches}{0}}}
\@writefile{nav}{\headcommand {\beamer@framepages {37}{37}}}
\@writefile{nav}{\headcommand {\slideentry {5}{1}{2}{38/38}{Hybrid Approaches}{0}}}
\@writefile{nav}{\headcommand {\beamer@framepages {38}{38}}}
\@writefile{toc}{\beamer@subsectionintoc {5}{2}{Naive Technique}{39}{0}{5}}
\@writefile{nav}{\headcommand {\beamer@subsectionentry {0}{5}{2}{39}{Naive Technique}}\headcommand {\beamer@subsectionpages {37}{38}}}
\@writefile{nav}{\headcommand {\slideentry {5}{2}{1}{39/39}{Naive Technique}{0}}}
\@writefile{nav}{\headcommand {\beamer@framepages {39}{39}}}
\@writefile{nav}{\headcommand {\slideentry {5}{2}{2}{40/40}{Naive Technique}{0}}}
\@writefile{nav}{\headcommand {\beamer@framepages {40}{40}}}
\@writefile{nav}{\headcommand {\slideentry {5}{2}{3}{41/41}{Naive Technique}{0}}}
\@writefile{nav}{\headcommand {\beamer@framepages {41}{41}}}
\@writefile{nav}{\headcommand {\slideentry {5}{2}{4}{42/42}{Naive Technique}{0}}}
\@writefile{nav}{\headcommand {\beamer@framepages {42}{42}}}
\@writefile{nav}{\headcommand {\slideentry {5}{2}{5}{43/43}{Naive Technique}{0}}}
\@writefile{nav}{\headcommand {\beamer@framepages {43}{43}}}
\@writefile{nav}{\headcommand {\slideentry {5}{2}{6}{44/44}{Naive Technique}{0}}}
\@writefile{nav}{\headcommand {\beamer@framepages {44}{44}}}
\@writefile{nav}{\headcommand {\slideentry {5}{2}{7}{45/45}{Naive Technique}{0}}}
\@writefile{nav}{\headcommand {\beamer@framepages {45}{45}}}
\@writefile{nav}{\headcommand {\slideentry {5}{2}{8}{46/46}{Naive Technique}{0}}}
\@writefile{nav}{\headcommand {\beamer@framepages {46}{46}}}
\@writefile{toc}{\beamer@subsectionintoc {5}{3}{First Hybrid Technique}{47}{0}{5}}
\@writefile{nav}{\headcommand {\beamer@subsectionentry {0}{5}{3}{47}{First Hybrid Technique}}\headcommand {\beamer@subsectionpages {39}{46}}}
\@writefile{nav}{\headcommand {\slideentry {5}{3}{1}{47/47}{First Hybrid Technique}{0}}}
\@writefile{nav}{\headcommand {\beamer@framepages {47}{47}}}
\@writefile{nav}{\headcommand {\slideentry {5}{3}{2}{48/48}{First Hybrid Technique}{0}}}
\@writefile{nav}{\headcommand {\beamer@framepages {48}{48}}}
\@writefile{nav}{\headcommand {\slideentry {5}{3}{3}{49/49}{First Hybrid Technique}{0}}}
\@writefile{nav}{\headcommand {\beamer@framepages {49}{49}}}
\@writefile{toc}{\beamer@subsectionintoc {5}{4}{Second Hybrid Technique}{50}{0}{5}}
\@writefile{nav}{\headcommand {\beamer@subsectionentry {0}{5}{4}{50}{Second Hybrid Technique}}\headcommand {\beamer@subsectionpages {47}{49}}}
\@writefile{nav}{\headcommand {\slideentry {5}{4}{1}{50/50}{Second Hybrid Technique}{0}}}
\@writefile{nav}{\headcommand {\beamer@framepages {50}{50}}}
\@writefile{nav}{\headcommand {\slideentry {5}{4}{2}{51/51}{Second Hybrid Technique}{0}}}
\@writefile{nav}{\headcommand {\beamer@framepages {51}{51}}}
\@writefile{toc}{\beamer@sectionintoc {6}{Probabilistic Techniques}{52}{0}{6}}
\@writefile{nav}{\headcommand {\sectionentry {6}{Probabilistic Techniques}{52}{Probabilistic Techniques}{0}}}
\@writefile{nav}{\headcommand {\beamer@sectionpages {37}{51}}}
\@writefile{nav}{\headcommand {\beamer@subsectionpages {50}{51}}}
\@writefile{toc}{\beamer@subsectionintoc {6}{1}{Naive Bayes}{52}{0}{6}}
\@writefile{nav}{\headcommand {\beamer@subsectionentry {0}{6}{1}{52}{Naive Bayes}}\headcommand {\beamer@subsectionpages {52}{51}}}
\@writefile{nav}{\headcommand {\slideentry {6}{1}{1}{52/52}{Naive Bayes}{0}}}
\@writefile{nav}{\headcommand {\beamer@framepages {52}{52}}}
\@writefile{toc}{\beamer@subsectionintoc {6}{2}{Bayesian Network}{53}{0}{6}}
\@writefile{nav}{\headcommand {\beamer@subsectionentry {0}{6}{2}{53}{Bayesian Network}}\headcommand {\beamer@subsectionpages {52}{52}}}
\@writefile{nav}{\headcommand {\slideentry {6}{2}{1}{53/53}{Bayesian Network}{0}}}
\@writefile{nav}{\headcommand {\beamer@framepages {53}{53}}}
\@writefile{nav}{\headcommand {\slideentry {6}{2}{2}{54/54}{Bayesian Network}{0}}}
\@writefile{nav}{\headcommand {\beamer@framepages {54}{54}}}
\citation{2}
\citation{3}
\@writefile{toc}{\beamer@subsectionintoc {6}{3}{Clustering}{55}{0}{6}}
\@writefile{nav}{\headcommand {\beamer@subsectionentry {0}{6}{3}{55}{Clustering}}\headcommand {\beamer@subsectionpages {53}{54}}}
\@writefile{nav}{\headcommand {\slideentry {6}{3}{1}{55/55}{Clustering}{0}}}
\@writefile{nav}{\headcommand {\beamer@framepages {55}{55}}}
\@writefile{nav}{\headcommand {\slideentry {6}{3}{2}{56/56}{Clustering}{0}}}
\@writefile{nav}{\headcommand {\beamer@framepages {56}{56}}}
\@writefile{nav}{\headcommand {\slideentry {6}{3}{3}{57/57}{Clustering}{0}}}
\@writefile{nav}{\headcommand {\beamer@framepages {57}{57}}}
\@writefile{nav}{\headcommand {\slideentry {6}{3}{4}{58/58}{Clustering}{0}}}
\@writefile{nav}{\headcommand {\beamer@framepages {58}{58}}}
\@writefile{nav}{\headcommand {\slideentry {6}{3}{5}{59/59}{Clustering}{0}}}
\@writefile{nav}{\headcommand {\beamer@framepages {59}{59}}}
\@writefile{nav}{\headcommand {\slideentry {6}{3}{6}{60/60}{Clustering}{0}}}
\@writefile{nav}{\headcommand {\beamer@framepages {60}{60}}}
\@writefile{nav}{\headcommand {\slideentry {6}{3}{7}{61/61}{Clustering}{0}}}
\@writefile{nav}{\headcommand {\beamer@framepages {61}{61}}}
\@writefile{nav}{\headcommand {\slideentry {6}{3}{8}{62/62}{Clustering}{0}}}
\@writefile{nav}{\headcommand {\beamer@framepages {62}{62}}}
\@writefile{nav}{\headcommand {\slideentry {6}{3}{9}{63/63}{Clustering}{0}}}
\@writefile{nav}{\headcommand {\beamer@framepages {63}{63}}}
\@writefile{nav}{\headcommand {\slideentry {6}{3}{10}{64/64}{Clustering}{0}}}
\@writefile{nav}{\headcommand {\beamer@framepages {64}{64}}}
\@writefile{nav}{\headcommand {\slideentry {6}{3}{11}{65/65}{Clustering}{0}}}
\@writefile{nav}{\headcommand {\beamer@framepages {65}{65}}}
\citation{4}
\citation{5}
\@writefile{nav}{\headcommand {\slideentry {6}{3}{12}{66/66}{Clustering}{0}}}
\@writefile{nav}{\headcommand {\beamer@framepages {66}{66}}}
\@writefile{nav}{\headcommand {\slideentry {6}{3}{13}{67/67}{Clustering}{0}}}
\@writefile{nav}{\headcommand {\beamer@framepages {67}{67}}}
\@writefile{nav}{\headcommand {\slideentry {6}{3}{14}{68/68}{Clustering}{0}}}
\@writefile{nav}{\headcommand {\beamer@framepages {68}{68}}}
\citation{11}
\@writefile{nav}{\headcommand {\slideentry {6}{3}{15}{69/69}{Clustering}{0}}}
\@writefile{nav}{\headcommand {\beamer@framepages {69}{69}}}
\citation{*}
\bibstyle{alpha}
\bibdata{biblio.bib}
\bibcite{1}{{1}{}{{}}{{}}}
\bibcite{11}{{11}{}{{}}{{}}}
\bibcite{2}{{2}{}{{}}{{}}}
\bibcite{3}{{3}{}{{}}{{}}}
\bibcite{4}{{4}{}{{}}{{}}}
\bibcite{5}{{5}{}{{}}{{}}}
\bibcite{10}{{CT02}{}{{}}{{}}}
\bibcite{8}{{DJ10}{}{{}}{{}}}
\bibcite{9}{{PB07}{}{{}}{{}}}
\@writefile{nav}{\headcommand {\sectionentry {7}{References}{70}{References}{0}}}
\@writefile{nav}{\headcommand {\beamer@sectionpages {52}{69}}}
\@writefile{nav}{\headcommand {\beamer@subsectionpages {55}{69}}}
\@writefile{nav}{\headcommand {\slideentry {7}{0}{0}{70/70}{Clustering}{0}}}
\@writefile{nav}{\headcommand {\beamer@framepages {70}{70}}}
\@writefile{nav}{\headcommand {\slideentry {7}{0}{0}{70/71}{Clustering}{0}}}
\@writefile{nav}{\headcommand {\beamer@framepages {70}{71}}}
\@writefile{nav}{\headcommand {\beamer@partpages {1}{71}}}
\@writefile{nav}{\headcommand {\beamer@subsectionpages {55}{71}}}
\@writefile{nav}{\headcommand {\beamer@sectionpages {52}{71}}}
\@writefile{nav}{\headcommand {\beamer@documentpages {71}}}
\@writefile{nav}{\headcommand {\def \inserttotalframenumber {71}}}
\providecommand\NAT@force@numbers{}\NAT@force@numbers
